[
  {
    "name": "Select a contract...",
    "address": "",
    "abi": ""
  },
  {
    "name": "BlasKoins!",
    "address": "0xD9503F5f95C4B26AAe7b1aBe0689d64B1145Cd38",
    "abi": '[ { "constant": false, "inputs": [ { "name": "newSellPrice", "type": "uint256" }, { "name": "newBuyPrice", "type": "uint256" } ], "name": "setPrices", "outputs": [], "payable": false, "stateMutability": "nonpayable", "type": "function" }, { "constant": true, "inputs": [], "name": "name", "outputs": [ { "name": "", "type": "string", "value": "BlasKoin1" } ], "payable": false, "stateMutability": "view", "type": "function" }, { "constant": false, "inputs": [ { "name": "_spender", "type": "address" }, { "name": "_value", "type": "uint256" } ], "name": "approve", "outputs": [ { "name": "success", "type": "bool" } ], "payable": false, "stateMutability": "nonpayable", "type": "function" }, { "constant": true, "inputs": [], "name": "totalSupply", "outputs": [ { "name": "", "type": "uint256", "value": "8675309" } ], "payable": false, "stateMutability": "view", "type": "function" }, { "constant": false, "inputs": [ { "name": "_from", "type": "address" }, { "name": "_to", "type": "address" }, { "name": "_value", "type": "uint256" } ], "name": "transferFrom", "outputs": [ { "name": "success", "type": "bool" } ], "payable": false, "stateMutability": "nonpayable", "type": "function" }, { "constant": true, "inputs": [], "name": "decimals", "outputs": [ { "name": "", "type": "uint8", "value": "0" } ], "payable": false, "stateMutability": "view", "type": "function" }, { "constant": false, "inputs": [ { "name": "_value", "type": "uint256" } ], "name": "burn", "outputs": [ { "name": "success", "type": "bool" } ], "payable": false, "stateMutability": "nonpayable", "type": "function" }, { "constant": true, "inputs": [], "name": "sellPrice", "outputs": [ { "name": "", "type": "uint256", "value": "0" } ], "payable": false, "stateMutability": "view", "type": "function" }, { "constant": true, "inputs": [ { "name": "", "type": "address" } ], "name": "balanceOf", "outputs": [ { "name": "", "type": "uint256", "value": "0" } ], "payable": false, "stateMutability": "view", "type": "function" }, \
    { "constant": false, "inputs": [ { "name": "target", "type": "address" }, { "name": "mintedAmount", "type": "uint256" } ], "name": "mintToken", "outputs": [], "payable": false, "stateMutability": "nonpayable", "type": "function" }, { "constant": false, "inputs": [ { "name": "_from", "type": "address" }, { "name": "_value", "type": "uint256" } ], "name": "burnFrom", "outputs": [ { "name": "success", "type": "bool" } ], "payable": false, "stateMutability": "nonpayable", "type": "function" }, { "constant": true, "inputs": [], "name": "buyPrice", "outputs": [ { "name": "", "type": "uint256", "value": "0" } ], "payable": false, "stateMutability": "view", "type": "function" }, { "constant": true, "inputs": [], "name": "owner", "outputs": [ { "name": "", "type": "address", "value": "0xdf8081765dc3fea0a44c53e80b547a728c2f6af7" } ], "payable": false, "stateMutability": "view", "type": "function" }, { "constant": true, "inputs": [], "name": "symbol", "outputs": [ { "name": "", "type": "string", "value": "BLSK1" } ], "payable": false, "stateMutability": "view", "type": "function" }, { "constant": false, "inputs": [], "name": "buy", "outputs": [], "payable": true, "stateMutability": "payable", "type": "function" }, { "constant": false, "inputs": [ { "name": "_to", "type": "address" }, { "name": "_value", "type": "uint256" } ], "name": "transfer", "outputs": [], "payable": false, "stateMutability": "nonpayable", "type": "function" }, { "constant": true, "inputs": [ { "name": "", "type": "address" } ], "name": "frozenAccount", "outputs": [ { "name": "", "type": "bool", "value": false } ], "payable": false, "stateMutability": "view", "type": "function" }, { "constant": false, "inputs": [ { "name": "minimumBalanceInFinney", "type": "uint256" } ], "name": "setMinBalance", "outputs": [], "payable": false, "stateMutability": "nonpayable", "type": "function" }, { "constant": false, "inputs": [ { "name": "_spender", "type": "address" }, { "name": "_value", "type": "uint256" }, { "name": "_extraData", "type": "bytes" } ], "name": "approveAndCall", "outputs": [ \
    { "name": "success", "type": "bool" } ], "payable": false, "stateMutability": "nonpayable", "type": "function" }, { "constant": true, "inputs": [ { "name": "", "type": "address" }, { "name": "", "type": "address" } ], "name": "allowance", "outputs": [ { "name": "", "type": "uint256", "value": "0" } ], "payable": false, "stateMutability": "view", "type": "function" }, { "constant": false, "inputs": [ { "name": "amount", "type": "uint256" } ], "name": "sell", "outputs": [], "payable": false, "stateMutability": "nonpayable", "type": "function" }, { "constant": false, "inputs": [ { "name": "target", "type": "address" }, { "name": "freeze", "type": "bool" } ], "name": "freezeAccount", "outputs": [], "payable": false, "stateMutability": "nonpayable", "type": "function" }, { "constant": false, "inputs": [ { "name": "newOwner", "type": "address" } ], "name": "transferOwnership", "outputs": [], "payable": false, "stateMutability": "nonpayable", "type": "function" }, { "inputs": [ { "name": "initialSupply", "type": "uint256", "index": 0, "typeShort": "uint", "bits": "256", "displayName": "initial Supply", "template": "elements_input_uint" }, { "name": "tokenName", "type": "string", "index": 1, "typeShort": "string", "bits": "", "displayName": "token Name", "template": "elements_input_string" }, { "name": "tokenSymbol", "type": "string", "index": 2, "typeShort": "string", "bits": "", "displayName": "token Symbol", "template": "elements_input_string" } ], "payable": false, "stateMutability": "nonpayable", "type": "constructor" }, { "anonymous": false, "inputs": [ { "indexed": false, "name": "target", "type": "address" }, { "indexed": false, "name": "frozen", "type": "bool" } ], "name": "FrozenFunds", "type": "event" }, { "anonymous": false, "inputs": [ { "indexed": true, "name": "from", "type": "address" }, { "indexed": true, "name": "to", "type": "address" }, { "indexed": false, "name": "value", "type": "uint256" } ], "name": "Transfer", "type": "event" }, { "anonymous": false, "inputs": [ { "indexed": true, "name": "from", "type": "address" }, { "indexed": false, "name": "value", "type": "uint256" } ], "name": "Burn", "type": "event" } ]'
  }
]
